-------------------------------------------------------------------------------
Test set: ua.cn.stu.cs.ems.core.ecli.EcliAggregateAccessorTest
-------------------------------------------------------------------------------
Tests run: 8, Failures: 0, Errors: 0, Skipped: 0, Time elapsed: 0.005 sec
