-------------------------------------------------------------------------------
Test set: ua.cn.stu.cs.ems.core.xml.XMLValidationTest
-------------------------------------------------------------------------------
Tests run: 6, Failures: 0, Errors: 0, Skipped: 0, Time elapsed: 2.808 sec
