-------------------------------------------------------------------------------
Test set: ua.cn.stu.cs.ems.core.transitions.SpecialTransitionTest
-------------------------------------------------------------------------------
Tests run: 2, Failures: 0, Errors: 0, Skipped: 0, Time elapsed: 0 sec
