-------------------------------------------------------------------------------
Test set: ua.cn.stu.cs.ems.core.models.DelayedQueueTest
-------------------------------------------------------------------------------
Tests run: 7, Failures: 0, Errors: 0, Skipped: 0, Time elapsed: 0 sec
