-------------------------------------------------------------------------------
Test set: ua.cn.stu.cs.ems.ui.vaadin.widgets.gwt.client.canvas.event.EntityEventUnitTest
-------------------------------------------------------------------------------
Tests run: 4, Failures: 0, Errors: 0, Skipped: 0, Time elapsed: 0.002 sec
